.Xil/Vivado-8972-BURAK-THB/hw_ila_data_1/zip_work/waveform.vcd
$date
        2019-Jun-17 13:27:09
$end
$version
        Vivado v2016.4 (64-bit)
$end
$timescale
        1ps
$end
$scope module dut $end
$var reg 32 " design_1_i/axi_bus_driver_0_user_bus0 [31:0] $end
$var reg 2 B design_1_i/pwm_generator_0_pwm_left [1:0] $end
$var reg 2 D design_1_i/pwm_generator_0_pwm_right [1:0] $end
$var reg 2 F design_1_i/pwm_generator_0_pwm_left_n [1:0] $end
$var reg 2 H design_1_i/pwm_generator_0_pwm_right_n [1:0] $end
$var reg 1 J design_1_i/xadc_wiz_0_eoc_out $end
$var reg 1 K design_1_i/xadc_wiz_0_eos_out $end
$var reg 1 L design_1_i/xadc_wiz_0_busy_out $end
$var reg 1 M _TRIGGER $end
$var reg 1 N _WINDOW $end
$var reg 1 O _GAP $end
$upscope $end
$enddefinitions $end
#0
$dumpvars
b11001010111111100001001000110100 "
b11 B
b11 D
b0 F
b0 H
0J
0K
1L
1M
1N
0O
$end
#30
b0 B
b11 F
#51
0L
#102
1L
#211
0L
#232
1L
#341
0L
#392
1L
#478
b0 D
b11 H
#501
0L
#522
1L
#538
b11 D
b0 H
#631
0L
#649
1J
#650
0J
#682
1L
#791
0L
#809
1J
1K
#810
0J
0K
#812
1L
#921
0L
#972
1L
#1000
b11 B
b0 F
#1050
b0 B
b11 F
#1081
0L
#1102
1L
#1211
0L
#1262
1L
#1371
0L
#1392
1L
#1501
0L
#1512
b0 D
b11 H
#1552
1L
#1559
b11 D
b0 H
#1661
0L
#1682
1L
#1791
0L
#1842
1L
#1951
0L
#1972
1L
#2033
b11 B
b0 F
#2071
b0 B
b11 F
#2081
0L
#2132
1L
#2241
0L
#2262
1L
#2371
0L
#2422
1L
#2531
0L
#2545
b0 D
b11 H
#2552
1L
#2580
b11 D
b0 H
#2661
0L
#2712
1L
#2821
0L
#2842
1L
#2951
0L
#3002
1L
#3066
b11 B
b0 F
#3092
b0 B
b11 F
#3111
0L
#3132
1L
#3241
0L
#3292
1L
#3401
0L
#3422
1L
#3531
0L
#3578
b0 D
b11 H
#3582
1L
#3603
b11 D
b0 H
#3691
0L
#3712
1L
#3821
0L
#3872
1L
#3981
0L
#4002
1L
#4097
b11 B
b0 F
#4111
0L
#4115
b0 B
b11 F
#4162
1L
#4271
0L
#4292
1L
#4401
0L
#4452
1L
#4561
0L
#4582
1L
#4609
b0 D
b11 H
#4626
b11 D
b0 H
#4691
0L
#4742
1L
#4851
0L
#4872
1L
#4981
0L
#5032
1L
#5128
b11 B
b0 F
#5138
b0 B
b11 F
#5141
0L
#5162
1L
#5271
0L
#5289
1J
#5290
0J
#5322
1L
#5431
0L
#5449
1J
1K
#5450
0J
0K
#5452
1L
#5561
0L
#5612
1L
#5640
b0 D
b11 H
#5651
b11 D
b0 H
#5721
0L
#5742
1L
#5851
0L
#5902
1L
#6011
0L
#6032
1L
#6141
0L
#6157
b11 B
b0 F
#6163
b0 B
b11 F
#6192
1L
#6301
0L
#6322
1L
#6431
0L
#6482
1L
#6591
0L
#6612
1L
#6669
b0 D
b11 H
#6677
b11 D
b0 H
#6721
0L
#6772
1L
#6881
0L
#6902
1L
#7011
0L
#7062
1L
#7171
0L
#7185
b11 B
b0 F
#7189
b0 B
b11 F
#7192
1L
#7301
0L
#7352
1L
#7461
0L
#7482
1L
#7591
0L
#7642
1L
#7697
b0 D
b11 H
#7704
b11 D
b0 H
#7751
0L
#7772
1L
#7881
0L
#7932
1L
#8041
0L
#8062
1L
#8171
0L
#8212
b11 B
b0 F
#8216
b0 B
b11 F
#8222
1L
#8331
0L
#8352
1L
#8461
0L
#8512
1L
#8621
0L
#8642
1L
#8724
b0 D
b11 H
#8731
b11 D
b0 H
#8751
0L
#8802
1L
#8911
0L
#8932
1L
#9041
0L
#9092
1L
#9201
0L
#9222
1L
#9239
b11 B
b0 F
#9243
b0 B
b11 F
#9331
0L
#9382
1L
#9491
0L
#9512
1L
#9621
0L
#9672
1L
#9751
b0 D
b11 H
#9759
b11 D
b0 H
#9781
0L
#9802
1L
#9911
0L
#9929
1J
#9930
0J
#9962
1L
#10071
0L
#10089
1J
1K
#10090
0J
0K
#10092
1L
#10201
0L
#10252
1L
#10265
b11 B
b0 F
#10271
b0 B
b11 F
#10361
0L
#10382
1L
#10491
0L
#10542
1L
#10651
0L
#10672
1L
#10777
b0 D
b11 H
#10781
0L
#10788
b11 D
b0 H
#10832
1L
#10941
0L
#10962
1L
#11071
0L
#11122
1L
#11231
0L
#11252
1L
#11290
b11 B
b0 F
#11300
b0 B
b11 F
#11361
0L
#11412
1L
#11521
0L
#11542
1L
#11651
0L
#11702
1L
#11802
b0 D
b11 H
#11811
0L
#11819
b11 D
b0 H
#11832
1L
#11941
0L
#11992
1L
#12101
0L
#12122
1L
#12231
0L
#12282
1L
#12313
b11 B
b0 F
#12331
b0 B
b11 F
#12391
0L
#12412
1L
#12521
0L
#12572
1L
#12681
0L
#12702
1L
#12811
0L
#12825
b0 D
b11 H
#12850
b11 D
b0 H
#12862
1L
#12971
0L
#12992
1L
#13101
0L
#13152
1L
#13261
0L
#13282
1L
#13336
b11 B
b0 F
#13362
b0 B
b11 F
#13391
0L
#13442
1L
#13551
0L
#13572
1L
#13681
0L
#13732
1L
#13841
0L
#13848
b0 D
b11 H
#13862
1L
#13883
b11 D
b0 H
#13971
0L
#14022
1L
#14131
0L
#14152
1L
#14261
0L
#14312
1L
#14357
b11 B
b0 F
#14395
b0 B
b11 F
#14421
0L
#14442
1L
#14551
0L
#14569
1J
#14570
0J
#14602
1L
#14711
0L
#14729
1J
1K
#14730
0J
0K
#14732
1L
#14841
0L
#14869
b0 D
b11 H
#14892
1L
#14916
b11 D
b0 H
#15001
0L
#15022
1L
#15131
0L
#15182
1L
#15291
0L
#15312
1L
#15378
b11 B
b0 F
#15421
0L
#15428
b0 B
b11 F
#15472
1L
#15581
0L
#15602
1L
#15711
0L
#15762
1L
#15871
0L
#15890
b0 D
b11 H
#15892
1L
#15950
b11 D
b0 H
#16001
0L
#16052
1L
#16161
0L
#16182
1L
#16291
0L
#16342
1L
#16398
b11 B
b0 F
#16451
0L
#16462
b0 B
b11 F
#16472
1L
#16581
0L
#16632
1L
#16741
0L
#16762
1L
#16871
0L
#16910
b0 D
b11 H
#16922
1L
#16985
b11 D
b0 H
#17031
0L
#17052
1L
#17161
0L
#17212
1L
#17321
0L
#17342
1L
#17417
b11 B
b0 F
#17451
0L
#17497
b0 B
b11 F
#17502
1L
#17611
0L
#17632
1L
#17741
0L
#17792
1L
#17901
0L
#17922
1L
#17929
b0 D
b11 H
#18021
b11 D
b0 H
#18031
0L
#18082
1L
#18191
0L
#18212
1L
#18321
0L
#18372
1L
#18435
b11 B
b0 F
#18481
0L
#18502
1L
#18533
b0 B
b11 F
#18611
0L
#18662
1L
#18771
0L
#18792
1L
#18901
0L
#18947
b0 D
b11 H
#18952
1L
#19058
b11 D
b0 H
#19061
0L
#19082
1L
#19191
0L
#19209
1J
#19210
0J
#19242
1L
#19351
0L
#19369
1J
1K
#19370
0J
0K
#19372
1L
#19452
b11 B
b0 F
#19481
0L
#19532
1L
#19570
b0 B
b11 F
#19641
0L
#19662
1L
#19771
0L
#19822
1L
#19931
0L
#19952
1L
#19964
b0 D
b11 H
#20061
0L
#20096
b11 D
b0 H
#20112
1L
#20221
0L
#20242
1L
#20351
0L
#20402
1L
#20468
b11 B
b0 F
#20511
0L
#20532
1L
#20608
b0 B
b11 F
#20641
0L
#20692
1L
#20801
0L
#20822
1L
#20931
0L
#20980
b0 D
b11 H
#20982
1L
#21091
0L
#21112
1L
#21134
b11 D
b0 H
#21221
0L
#21272
1L
#21381
0L
#21402
1L
#21484
b11 B
b0 F
#21511
0L
#21562
1L
#21646
b0 B
b11 F
#21671
0L
#21692
1L
#21801
0L
#21852
1L
#21961
0L
#21982
1L
#21996
b0 D
b11 H
#22091
0L
#22142
1L
#22173
b11 D
b0 H
#22251
0L
#22272
1L
#22381
0L
#22432
1L
#22499
b11 B
b0 F
#22541
0L
#22562
1L
#22671
0L
#22685
b0 B
b11 F
#22722
1L
#22831
0L
#22852
1L
#22961
0L
#23011
b0 D
b11 H
#23012
1L
#23121
0L
#23142
1L
#23213
b11 D
b0 H
#23251
0L
#23302
1L
#23411
0L
#23432
1L
#23513
b11 B
b0 F
#23541
0L
#23592
1L
#23701
0L
#23722
1L
#23725
b0 B
b11 F
#23831
0L
#23849
1J
#23850
0J
#23882
1L
#23991
0L
#24009
1J
1K
#24010
0J
0K
#24012
1L
#24025
b0 D
b11 H
#24121
0L
#24172
1L
#24253
b11 D
b0 H
#24281
0L
#24302
1L
#24411
0L
#24462
1L
#24527
b11 B
b0 F
#24571
0L
#24592
1L
#24701
0L
#24752
1L
#24765
b0 B
b11 F
#24861
0L
#24882
1L
#24991
0L
#25039
b0 D
b11 H
#25042
1L
#25151
0L
#25172
1L
#25281
0L
#25294
b11 D
b0 H
#25332
1L
#25441
0L
#25462
1L
#25540
b11 B
b0 F
#25571
0L
#25622
1L
#25731
0L
#25752
1L
#25806
b0 B
b11 F
#25861
0L
#25912
1L
#26021
0L
#26042
1L
#26052
b0 D
b11 H
#26151
0L
#26202
1L
#26311
0L
#26332
1L
#26335
b11 D
b0 H
#26441
0L
#26492
1L
#26553
b11 B
b0 F
#26601
0L
#26622
1L
#26731
0L
#26782
1L
#26847
b0 B
b11 F
#26891
0L
#26912
1L
#27021
0L
#27065
b0 D
b11 H
#27072
1L
#27181
0L
#27202
1L
#27311
0L
#27362
1L
#27377
b11 D
b0 H
#27471
0L
#27492
1L
#27565
b11 B
b0 F
#27601
0L
#27652
1L
#27761
0L
#27782
1L
#27889
b0 B
b11 F
#27891
0L
#27942
1L
#28051
0L
#28072
1L
#28077
b0 D
b11 H
#28181
0L
#28232
1L
#28341
0L
#28362
1L
#28419
b11 D
b0 H
#28471
0L
#28489
1J
#28490
0J
#28522
1L
#28577
b11 B
b0 F
#28631
0L
#28649
1J
1K
#28650
0J
0K
#28652
1L
#28761
0L
#28812
1L
#28921
0L
#28931
b0 B
b11 F
#28942
1L
#29051
0L
#29089
b0 D
b11 H
#29102
1L
#29211
0L
#29232
1L
#29341
0L
#29392
1L
#29462
b11 D
b0 H
#29501
0L
#29522
1L
#29588
b11 B
b0 F
#29631
0L
#29682
1L
#29791
0L
#29812
1L
#29921
0L
#29972
1L
#29974
b0 B
b11 F
#30081
0L
#30100
b0 D
b11 H
#30102
1L
#30211
0L
#30262
1L
#30371
0L
#30392
1L
#30501
0L
#30504
b11 D
b0 H
#30552
1L
#30600
b11 B
b0 F
#30661
0L
#30682
1L
#30791
0L
#30842
1L
#30951
0L
#30972
1L
#31016
b0 B
b11 F
#31081
0L
#31112
b0 D
b11 H
#31132
1L
#31241
0L
#31262
1L
#31371
0L
#31422
1L
#31531
0L
#31547
b11 D
b0 H
#31552
1L
#31611
b11 B
b0 F
#31661
0L
#31712
1L
#31821
0L
#31842
1L
#31951
0L
#32002
1L
#32059
b0 B
b11 F
#32111
0L
#32123
b0 D
b11 H
#32132
1L
#32241
0L
#32292
1L
#32401
0L
#32422
1L
#32531
0L
#32582
1L
#32590
b11 D
b0 H
#32622
b11 B
b0 F
#32691
0L
#32712
1L
#32821
0L
#32872
1L
#32981
0L
#33002
1L
#33102
b0 B
b11 F
#33111
0L
#33129
1J
#33130
0J
#33134
b0 D
b11 H
#33162
1L
#33271
0L
#33289
1J
1K
#33290
0J
0K
#33292
1L
#33401
0L
#33452
1L
#33561
0L
#33582
1L
#33633
b11 B
b11 D
b0 F
b0 H
#33691
0L
#33742
1L
#33851
0L
#33872
1L
#33981
0L
#34032
1L
#34141
0L
#34145
b0 B
b0 D
b11 F
b11 H
#34162
1L
#34271
0L
#34322
1L
#34431
0L
#34452
1L
#34561
0L
#34612
1L
#34644
b11 B
b0 F
#34676
b11 D
b0 H
#34721
0L
#34742
1L
#34851
0L
#34902
1L
#35011
0L
#35032
1L
#35141
0L
#35156
b0 D
b11 H
#35188
b0 B
b11 F
#35192
1L
#35301
0L
#35322
1L
#35431
0L
#35482
1L
#35591
0L
#35612
1L
#35655
b11 B
b0 F
#35719
b11 D
b0 H
#35721
0L
#35772
1L
#35881
0L
#35902
1L
#36011
0L
#36062
1L
#36167
b0 D
b11 H
#36171
0L
#36192
1L
#36231
b0 B
b11 F
#36301
0L
#36352
1L
#36461
0L
#36482
1L
#36591
0L
#36642
1L
#36666
b11 B
b0 F
#36751
0L
#36762
b11 D
b0 H
#36772
1L
#36881
0L
#36932
1L
#37041
0L
#37062
1L
#37171
0L
#37178
b0 D
b11 H
#37222
1L
#37274
b0 B
b11 F
#37331
0L
#37352
1L
#37461
0L
#37512
1L
#37621
0L
#37642
1L
#37678
b11 B
b0 F
#37751
0L
#37769
1J
#37770
0J
#37802
1L
#37804
b11 D
b0 H
#37911
0L
#37929
1J
1K
#37930
0J
0K
#37932
1L
#38041
0L
#38092
1L
#38190
b0 D
b11 H
#38201
0L
#38222
1L
#38316
b0 B
b11 F
#38331
0L
#38382
1L
#38491
0L
#38512
1L
#38621
0L
#38672
1L
#38689
b11 B
b0 F
#38781
0L
#38802
1L
#38847
b11 D
b0 H
#38911
0L
#38962
1L
#39071
0L
#39092
1L
#39201
b0 D
b11 H
0L
#39252
1L
#39359
b0 B
b11 F
#39361
0L
#39382
1L
#39491
0L
#39542
1L
#39651
0L
#39672
1L
#39701
b11 B
b0 F
#39781
0L
#39832
1L
#39889
b11 D
b0 H
#39941
0L
#39962
1L
#40071
0L
#40122
1L
#40213
b0 D
b11 H
#40231
0L
#40252
1L
#40361
0L
#40401
b0 B
b11 F
#40412
1L
#40521
0L
#40542
1L
#40651
0L
#40702
1L
#40713
b11 B
b0 F
#40811
0L
#40832
1L
#40931
b11 D
b0 H
#40941
0L
#40992
1L
#41101
0L
#41122
1L
#41225
b0 D
b11 H
#41231
0L
#41282
1L
#41391
0L
#41412
1L
#41443
b0 B
b11 F
#41521
0L
#41572
1L
#41681
0L
#41702
1L
#41726
b11 B
b0 F
#41811
0L
#41862
1L
#41971
0L
#41972
b11 D
b0 H
#41992
1L
#42101
0L
#42152
1L
#42238
b0 D
b11 H
#42261
0L
#42282
1L
#42391
0L
#42409
1J
#42410
0J
#42442
1L
#42484
b0 B
b11 F
#42551
0L
#42569
1J
1K
#42570
0J
0K
#42572
1L
#42681
0L
#42732
1L
#42739
b11 B
b0 F
#42841
0L
#42862
1L
#42971
0L
#43013
b11 D
b0 H
#43022
1L
#43131
0L
#43152
1L
#43251
b0 D
b11 H
#43261
0L
#43312
1L
#43421
0L
#43442
1L
#43525
b0 B
b11 F
#43551
0L
#43602
1L
#43711
0L
#43732
1L
#43753
b11 B
b0 F
#43841
0L
#43892
1L
#44001
0L
#44022
1L
#44053
b11 D
b0 H
#44131
0L
#44182
1L
#44265
b0 D
b11 H
#44291
0L
#44312
1L
#44421
0L
#44472
1L
#44565
b0 B
b11 F
#44581
0L
#44602
1L
#44711
0L
#44762
1L
#44767
b11 B
b0 F
#44871
0L
#44892
1L
#45001
0L
#45052
1L
#45093
b11 D
b0 H
#45161
0L
#45182
1L
#45279
b0 D
b11 H
#45291
0L
#45342
1L
#45451
0L
#45472
1L
#45581
0L
#45605
b0 B
b11 F
#45632
1L
#45741
0L
#45762
1L
#45782
b11 B
b0 F
#45871
0L
#45922
1L
#46031
0L
#46052
1L
#46132
b11 D
b0 H
#46161
0L
#46212
1L
#46294
b0 D
b11 H
#46321
0L
#46342
1L
#46451
0L
#46502
1L
#46611
0L
#46632
1L
#46644
b0 B
b11 F
#46741
0L
#46792
1L
#46798
b11 B
b0 F
#46901
0L
#46922
1L
#47031
0L
#47049
1J
#47050
0J
#47082
1L
#47170
b11 D
b0 H
#47191
0L
#47209
1J
1K
#47210
0J
0K
#47212
1L
#47310
b0 D
b11 H
#47321
0L
#47372
1L
#47481
0L
#47502
1L
#47611
0L
#47662
1L
#47682
b0 B
b11 F
#47771
0L
#47792
1L
#47814
b11 B
b0 F
#47901
0L
#47952
1L
#48061
0L
#48082
1L
#48191
0L
#48208
b11 D
b0 H
#48242
1L
#48326
b0 D
b11 H
#48351
0L
#48372
1L
#48481
0L
#48532
1L
#48641
0L
#48662
1L
#48720
b0 B
b11 F
#48771
0L
#48822
1L
#48831
b11 B
b0 F
#48931
0L
#48952
1L
#49061
0L
#49112
1L
#49221
0L
#49242
1L
#49245
b11 D
b0 H
#49343
b0 D
b11 H
#49351
0L
#49402
1L
#49511
0L
#49532
1L
#49641
0L
#49692
1L
#49757
b0 B
b11 F
#49801
0L
#49822
1L
#49849
b11 B
b0 F
#49931
0L
#49982
1L
#50091
0L
#50112
1L
#50221
0L
#50272
1L
#50281
b11 D
b0 H
#50361
b0 D
b11 H
#50381
0L
#50402
1L
#50511
0L
#50562
1L
#50671
0L
#50692
1L
#50793
b0 B
b11 F
#50801
0L
#50852
1L
#50868
b11 B
b0 F
#50961
0L
#50982
1L
#51091
0L
#51142
1L
#51251
0L
#51272
1L
#51316
b11 D
b0 H
#51380
b0 D
b11 H
#51381
0L
#51432
1L
#51541
0L
#51562
1L
#51671
0L
#51689
1J
#51690
0J
#51722
1L
#51828
b0 B
b11 F
#51831
0L
#51849
1J
1K
#51850
0J
0K
#51852
1L
#51888
b11 B
b0 F
#51961
0L
#52012
1L
#52121
0L
#52142
1L
#52251
0L
#52302
1L
#52350
b11 D
b0 H
#52400
b0 D
b11 H
#52411
0L
#52432
1L
#52541
0L
#52592
1L
#52701
0L
#52722
1L
#52831
0L
#52862
b0 B
b11 F
#52882
1L
#52909
b11 B
b0 F
#52991
0L
#53012
1L
#53121
0L
#53172
1L
#53281
0L
#53302
1L
#53383
b11 D
b0 H
#53411
0L
#53421
b0 D
b11 H
#53462
1L
#53571
0L
#53592
1L
#53701
0L
#53752
1L
#53861
0L
#53882
1L
#53895
b0 B
b11 F
#53930
b11 B
b0 F
#53991
0L
#54042
1L
#54151
0L
#54172
1L
#54281
0L
#54332
1L
#54416
b11 D
b0 H
#54441
0L
#54442
b0 D
b11 H
#54462
1L
#54571
0L
#54622
1L
#54731
0L
#54752
1L
#54861
0L
#54912
1L
#54928
b0 B
b11 F
#54953
b11 B
b0 F
#55021
0L
#55042
1L
#55151
0L
#55202
1L
#55311
0L
#55332
1L
#55441
0L
#55447
b11 D
b0 H
#55465
b0 D
b11 H
#55492
1L
#55601
0L
#55622
1L
#55731
0L
#55782
1L
#55891
0L
#55912
1L
#55959
b0 B
b11 F
#55976
b11 B
b0 F
#56021
0L
#56072
1L
#56181
0L
#56202
1L
#56311
0L
#56329
1J
#56330
0J
#56362
1L
#56471
0L
#56478
b11 D
b0 H
#56488
b0 D
b11 H
#56489
1J
1K
#56490
0J
0K
#56492
1L
#56601
0L
#56652
1L
#56761
0L
#56782
1L
#56891
0L
#56942
1L
#56990
b0 B
b11 F
#57001
b11 B
b0 F
#57051
0L
#57072
1L
#57181
0L
#57232
1L
#57341
0L
#57362
1L
#57471
0L
#57507
b11 D
b0 H
#57513
b0 D
b11 H
#57522
1L
#57631
0L
#57652
1L
#57761
0L
#57812
1L
#57921
0L
#57942
1L
#58019
b0 B
b11 F
#58027
b11 B
b0 F
#58051
0L
#58102
1L
#58211
0L
#58232
1L
#58341
0L
#58392
1L
#58501
0L
#58522
1L
#58535
b11 D
b0 H
#58539
b0 D
b11 H
#58631
0L
#58682
1L
#58791
0L
#58812
1L
#58921
0L
#58972
1L
#59047
b0 B
b11 F
#59054
b11 B
b0 F
#59081
0L
#59102
1L
#59211
0L
#59262
1L
#59371
0L
#59392
1L
#59501
0L
#59552
1L
#59562
b11 D
b0 H
#59566
b0 D
b11 H
#59661
0L
#59682
1L
#59791
0L
#59842
1L
#59951
0L
#59972
1L
#60074
b0 B
b11 F
#60081
b11 B
b0 F
0L
#60132
1L
#60241
0L
#60262
1L
#60371
0L
#60422
1L
#60531
0L
#60552
1L
#60589
b11 D
b0 H
#60593
b0 D
b11 H
#60661
0L
#60712
1L
#60821
0L
#60842
1L
#60951
0L
#60969
1J
#60970
0J
#61002
1L
#61101
b0 B
b11 F
#61109
b11 B
b0 F
#61111
0L
#61129
1J
1K
#61130
0J
0K
#61132
1L
#61241
0L
#61292
1L
#61401
0L
#61422
1L
#61531
0L
#61582
1L
#61615
b11 D
b0 H
#61621
b0 D
b11 H
#61691
0L
#61712
1L
#61821
0L
#61872
1L
#61981
0L
#62002
1L
#62111
0L
#62127
b0 B
b11 F
#62138
b11 B
b0 F
#62162
1L
#62271
0L
#62292
1L
#62401
0L
#62452
1L
#62561
0L
#62582
1L
#62640
b11 D
b0 H
#62650
b0 D
b11 H
#62691
0L
#62742
1L
#62851
0L
#62872
1L
#62981
0L
#63032
1L
#63141
0L
#63152
b0 B
b11 F
#63162
1L
#63169
b11 B
b0 F
#63271
0L
#63322
1L
#63431
0L
#63452
1L
#63561
0L
#63612
1L
#63663
b11 D
b0 H
#63681
b0 D
b11 H
#63721
0L
#63742
1L
#63851
0L
#63902
1L
#64011
0L
#64032
1L
#64141
0L
#64175
b0 B
b11 F
#64192
1L
#64200
b11 B
b0 F
#64301
0L
#64322
1L
#64431
0L
#64482
1L
#64591
0L
#64612
1L
#64686
b11 D
b0 H
#64712
b0 D
b11 H
#64721
0L
#64772
1L
#64881
0L
#64902
1L
#65011
0L
#65062
1L
#65171
0L
#65192
1L
#65198
b0 B
b11 F
#65233
b11 B
b0 F
#65301
0L
#65352
1L
#65461
0L
#65482
1L
#65591
0L
#65609
1J
#65610
0J
#65642
1L
#65707
b11 D
b0 H
#65745
b0 D
b11 H
#65751
0L
#65769
1J
1K
#65770
0J
0K
#65772
1L
#65881
0L
#65932
1L
#66041
0L
#66062
1L
#66171
0L
#66219
b0 B
b11 F
#66222
1L
#66266
b11 B
b0 F
#66331
0L
#66352
1L
#66461
0L
#66512
1L
#66621
0L
#66642
1L
#66728
b11 D
b0 H
#66751
0L
#66778
b0 D
b11 H
#66802
1L
#66911
0L
#66932
1L
#67041
0L
#67092
1L
#67201
0L
#67222
1L
#67240
b0 B
b11 F
#67300
b11 B
b0 F
#67331
0L
#67382
1L
#67491
0L
#67512
1L
#67621
0L
#67672
1L
#67748
b11 D
b0 H
#67781
0L
#67802
1L
#67812
b0 D
b11 H
#67911
0L
#67962
1L
#68071
0L
#68092
1L
#68201
0L
#68252
1L
#68260
b0 B
b11 F
#68335
b11 B
b0 F
#68361
0L
#68382
1L
#68491
0L
#68542
1L
#68651
0L
#68672
1L
#68767
b11 D
b0 H
#68781
0L
#68832
1L
#68847
b0 D
b11 H
#68941
0L
#68962
1L
#69071
0L
#69122
1L
#69231
0L
#69252
1L
#69279
b0 B
b11 F
#69361
0L
#69371
b11 B
b0 F
#69412
1L
#69521
0L
#69542
1L
#69651
0L
#69702
1L
#69785
b11 D
b0 H
#69811
0L
#69832
1L
#69883
b0 D
b11 H
#69941
0L
#69992
1L
#70101
0L
#70122
1L
#70231
0L
#70249
1J
#70250
0J
#70282
1L
#70297
b0 B
b11 F
#70391
0L
#70408
b11 B
b0 F
#70409
1J
1K
#70410
0J
0K
#70412
1L
#70521
0L
#70572
1L
#70681
0L
#70702
1L
#70802
b11 D
b0 H
#70811
0L
#70862
1L
#70920
b0 D
b11 H
#70971
0L
#70992
1L
#71101
0L
#71152
1L
#71261
0L
#71282
1L
#71314
b0 B
b11 F
#71391
0L
#71442
1L
#71446
b11 B
b0 F
#71551
0L
#71572
1L
#71681
0L
#71732
1L
#71818
b11 D
b0 H
#71841
0L
#71862
1L
#71958
b0 D
b11 H
#71971
0L
#72022
1L
#72131
0L
#72152
1L
#72261
0L
#72312
1L
#72330
b0 B
b11 F
#72421
0L
#72442
1L
#72484
b11 B
b0 F
#72551
0L
#72602
1L
#72711
0L
#72732
1L
#72834
b11 D
b0 H
#72841
0L
#72892
1L
#72996
b0 D
b11 H
#73001
0L
#73022
1L
#73131
0L
#73182
1L
#73291
0L
#73312
1L
#73346
b0 B
b11 F
#73421
0L
#73472
1L
#73523
b11 B
b0 F
#73581
0L
#73602
1L
#73711
0L
#73762
1L
#73849
b11 D
b0 H
#73871
0L
#73892
1L
#74001
0L
#74035
b0 D
b11 H
#74052
1L
#74161
0L
#74182
1L
#74291
0L
#74342
1L
#74361
b0 B
b11 F
#74451
0L
#74472
1L
#74563
b11 B
b0 F
#74581
0L
#74632
1L
#74741
0L
#74762
1L
#74863
b11 D
b0 H
#74871
0L
#74889
1J
#74890
0J
#74922
1L
#75031
0L
#75049
1J
1K
#75050
0J
0K
#75052
1L
#75075
b0 D
b11 H
#75161
0L
#75212
1L
#75321
0L
#75342
1L
#75375
b0 B
b11 F
#75451
0L
#75502
1L
#75603
b11 B
b0 F
#75611
0L
#75632
1L
#75741
0L
#75792
1L
#75877
b11 D
b0 H
#75901
0L
#75922
1L
#76031
0L
#76082
1L
#76115
b0 D
b11 H
#76191
0L
#76212
1L
#76321
0L
#76372
1L
#76389
b0 B
b11 F
#76481
0L
#76502
1L
#76611
0L
#76644
b11 B
b0 F
#76662
1L
#76771
0L
#76792
1L
#76890
b11 D
b0 H
#76901
0L
#76952
1L
#77061
0L
#77082
1L
#77156
b0 D
b11 H
#77191
0L
#77242
1L
#77351
0L
#77372
1L
#77402
b0 B
b11 F
#77481
0L
#77532
1L
#77641
0L
#77662
1L
#77685
b11 B
b0 F
#77771
0L
#77822
1L
#77903
b11 D
b0 H
#77931
0L
#77952
1L
#78061
0L
#78112
1L
#78197
b0 D
b11 H
#78221
0L
#78242
1L
#78351
0L
#78402
1L
#78415
b0 B
b11 F
#78511
0L
#78532
1L
#78641
0L
#78692
1L
#78727
b11 B
b0 F
#78801
0L
#78822
1L
#78915
b11 D
b0 H
#78931
0L
#78982
1L
#79091
0L
#79112
1L
#79221
0L
#79239
b0 D
b11 H
#79272
1L
#79381
0L
#79402
1L
#79427
b0 B
b11 F
#79511
0L
#79529
1J
#79530
0J
#79562
1L
#79671
0L
#79689
1J
1K
#79690
0J
0K
#79692
1L
#79769
b11 B
b0 F
#79801
0L
#79852
1L
#79927
b11 D
b0 H
#79961
0L
#79982
1L
#80091
0L
#80142
1L
#80251
0L
#80272
1L
#80281
b0 D
b11 H
#80381
0L
#80432
1L
#80439
b0 B
b11 F
#80541
0L
#80562
1L
#80671
0L
#80722
1L
#80812
b11 B
b0 F
#80831
0L
#80852
1L
#80938
b11 D
b0 H
#80961
0L
#81012
1L
#81121
0L
#81142
1L
#81251
0L
#81302
1L
#81324
b0 D
b11 H
#81411
0L
#81432
1L
#81450
b0 B
b11 F
#81541
0L
#81592
1L
#81701
0L
#81722
1L
#81831
0L
#81854
b11 B
b0 F
#81882
1L
#81950
b11 D
b0 H
#81991
0L
#82012
1L
#82121
0L
#82172
1L
#82281
0L
#82302
1L
#82366
b0 D
b11 H
#82411
0L
#82462
b0 B
b11 F
1L
#82571
0L
#82592
1L
#82701
0L
#82752
1L
#82861
0L
#82882
1L
#82897
b11 B
b0 F
#82961
b11 D
b0 H
#82991
0L
#83042
1L
#83151
0L
#83172
1L
#83281
0L
#83332
1L
#83409
b0 D
b11 H
#83441
0L
#83462
1L
#83473
b0 B
b11 F
#83571
0L
#83622
1L
#83731
0L
#83752
1L
#83861
0L
#83912
1L
#83940
b11 B
b0 F
#83972
b11 D
b0 H
#84021
0L
#84042
1L
#84151
0L
#84169
1J
#84170
0J
#84202
1L
#84311
0L
#84329
1J
1K
#84330
0J
0K
#84332
1L
#84441
0L
#84452
b0 D
b11 H
#84484
b0 B
b11 F
#84492
1L
#84601
0L
#84622
1L
#84731
0L
#84782
1L
#84891
0L
#84912
1L
#84983
b11 B
b11 D
b0 F
b0 H
#85021
0L
#85072
1L
#85181
0L
#85202
1L
#85311
0L
#85362
1L
#85471
0L
#85492
1L
#85495
b0 B
b0 D
b11 F
b11 H
#85601
0L
#85652
1L
#85761
0L
#85782
1L
#85891
0L
#85942
1L
#85994
b11 D
b0 H
#86026
b11 B
b0 F
#86051
0L
#86072
1L
#86181
0L
#86232
1L
#86341
0L
#86362
1L
#86471
0L
#86506
b0 B
b11 F
#86522
1L
#86538
b0 D
b11 H
#86631
0L
#86652
1L
#86761
0L
#86812
1L
#86921
0L
#86942
1L
#87005
b11 D
b0 H
#87051
0L
#87069
b11 B
b0 F
#87102
1L
#87211
0L
#87232
1L
#87341
0L
#87392
1L
#87501
0L
#87517
b0 B
b11 F
#87522
1L
#87581
b0 D
b11 H
#87631
0L
#87682
1L
#87791
0L
#87812
1L
#87921
0L
#87972
1L
#88016
b11 D
b0 H
#88081
0L
#88102
1L
#88112
b11 B
b0 F
#88211
0L
#88262
1L
#88371
0L
#88392
1L
#88501
0L
#88528
b0 B
b11 F
#88552
1L
#88624
b0 D
b11 H
#88661
0L
#88682
1L
#88791
0L
#88809
1J
#88810
0J
#88842
1L
#88951
0L
#88969
1J
1K
#88970
0J
0K
#88972
1L
#89028
b11 D
b0 H
#89081
0L
#89132
1L
#89154
b11 B
b0 F
#89241
0L
#89262
1L
#89371
0L
#89422
1L
#89531
0L
#89540
b0 B
b11 F
#89552
1L
#89661
0L
#89666
b0 D
b11 H
#89712
1L
#89821
0L
#89842
1L
#89951
0L
#90002
1L
#90039
b11 D
b0 H
#90111
0L
#90132
1L
#90197
b11 B
b0 F
#90241
0L
#90292
1L
#90401
0L
#90422
1L
#90531
0L
#90551
b0 B
b11 F
#90582
1L
#90691
0L
#90709
b0 D
b11 H
#90712
1L
#90821
0L
#90872
1L
#90981
0L
#91002
1L
#91051
b11 D
b0 H
#91111
0L
#91162
1L
#91239
b11 B
b0 F
#91271
0L
#91292
1L
#91401
0L
#91452
1L
#91561
0L
#91563
b0 B
b11 F
